{
  "project_info": {
    "project_number": "140609316736",
    "firebase_url": "https://frozen-core.firebaseio.com",
    "project_id": "frozen-core",
    "storage_bucket": "frozen-core.appspot.com"
  },
  "client": [
    {
      "client_info": {
        "mobilesdk_app_id": "1:140609316736:android:a053450ffd35ab9e",
        "android_client_info": {
          "package_name": "com.frozencore.galactic"
        }
      },
      "oauth_client": [
        {
          "client_id": "140609316736-59jpj6ktrq0me2mtcuprphb4qi6tm2bk.apps.googleusercontent.com",
          "client_type": 3
        }
      ],
      "api_key": [
        {
          "current_key": "AIzaSyAvtfBCAjzqe54bVoRwCUccWxTyMG1Hp_w"
        }
      ],
      "services": {
        "analytics_service": {
          "status": 1
        },
        "appinvite_service": {
          "status": 1,
          "other_platform_oauth_client": []
        },
        "ads_service": {
          "status": 2
        }
      }
    }
  ],
  "configuration_version": "1"
}